…
  if (i < 2){
    k <- j
    }else{
      k<- bind_rows(k,j)  
    }
}

nc_llE <- k %>% 
  rename(continent=`lvl_cont[i]`) %>% 
  rename(n_countries=n)

nc_llE  # can I add the mean lifeExp per year per continent?
```

    ## # A tibble: 60 x 3
    ## # Groups:   year [12]
    ##    year  continent n_countries
    ##    <fct> <chr>           <int>
    ##  1 1952  Africa            105
    ##  2 1957  Africa             96
    ##  3 1962  Africa             90
    ##  4 1967  Africa             84
    ##  5 1972  Africa             78
    ##  6 1977  Africa             70
    ##  7 1982  Africa             59
    ##  8 1987  Africa             49
    ##  9 1992  Africa             46
    ## 10 1997  Africa             46
    ## # ... with 50 more rows
…
